{
	"id": "3757543b-a409-4c9f-aa2b-6b08777ce959",
	"name": "QA",
	"values": [
		{
			"key": "env",
			"value": "qa",
			"enabled": true
		},
		{
			"key": "myName",
			"value": "Anji",
			"enabled": true
		},
		{
			"key": "userName",
			"value": "Sonu",
			"enabled": true
		},
		{
			"key": "password",
			"value": "123123",
			"enabled": true
		},
		{
			"key": "viaScriptVariable",
			"value": "test",
			"enabled": true
		},
		{
			"key": "emailID",
			"value": "",
			"enabled": true
		}
	],
	"_postman_variable_scope": "environment",
	"_postman_exported_at": "2020-08-12T03:08:45.487Z",
	"_postman_exported_using": "Postman/7.30.0"
}